<svg xmlns="http://www.w3.org/2000/svg" xmlns:xlink="http://www.w3.org/1999/xlink" width="24" height="24" viewBox="0 0 24 24">
  <defs>
    <clipPath id="clip-path">
      <rect id="Rectangle_14666" data-name="Rectangle 14666" width="24" height="24" fill="#fff"/>
    </clipPath>
  </defs>
  <g id="Group_23151" data-name="Group 23151" clip-path="url(#clip-path)">
    <path id="Path_19927" data-name="Path 19927" d="M40.667,47.981l1.372,1.438,7.676-8.043-7.676-8.043-1.372,1.438,6.3,6.6Z" transform="translate(-32.527 -29.215)" fill="#fff"/>
  </g>
</svg>
